<?xml version="1.0" encoding="UTF-8" standalone="no"?>
<!-- Created for Onboard -->

<svg
   xmlns:dc="http://purl.org/dc/elements/1.1/"
   xmlns:cc="http://creativecommons.org/ns#"
   xmlns:rdf="http://www.w3.org/1999/02/22-rdf-syntax-ns#"
   xmlns:svg="http://www.w3.org/2000/svg"
   xmlns="http://www.w3.org/2000/svg"
   xmlns:sodipodi="http://sodipodi.sourceforge.net/DTD/sodipodi-0.dtd"
   xmlns:inkscape="http://www.inkscape.org/namespaces/inkscape"
   id="svg2"
   height="115"
   width="330"
   version="1.0"
   inkscape:version="0.92.3 (2405546, 2018-03-11)"
   sodipodi:docname="surface-Alpha.svg">
  <defs
     id="defs90" />
  <sodipodi:namedview
     pagecolor="#ffffff"
     bordercolor="#666666"
     borderopacity="1"
     objecttolerance="10"
     gridtolerance="10"
     guidetolerance="10"
     inkscape:pageopacity="0"
     inkscape:pageshadow="2"
     inkscape:window-width="1368"
     inkscape:window-height="848"
     id="namedview88"
     showgrid="false"
     inkscape:zoom="20.075703"
     inkscape:cx="297.55912"
     inkscape:cy="99.78065"
     inkscape:window-x="92"
     inkscape:window-y="1107"
     inkscape:window-maximized="1"
     inkscape:current-layer="svg2"
     inkscape:snap-bbox="true"
     inkscape:bbox-nodes="true"
     inkscape:bbox-paths="true"
     fit-margin-top="0"
     fit-margin-left="0"
     fit-margin-right="0"
     fit-margin-bottom="0"
     showguides="true"
     inkscape:guide-bbox="true"
     inkscape:snap-global="true"
     inkscape:object-paths="false"
     inkscape:object-nodes="true">
    <sodipodi:guide
       orientation="1,0"
       position="-8.8560886,101.84502"
       id="guide3833"
       inkscape:locked="false" />
  </sodipodi:namedview>
  <metadata
     id="metadata3346">
    <rdf:RDF>
      <cc:Work
         rdf:about="">
        <dc:format>image/svg+xml</dc:format>
        <dc:type
           rdf:resource="http://purl.org/dc/dcmitype/StillImage" />
        <dc:title>Compact-Alpha.svg</dc:title>
        <cc:license
           rdf:resource="https://www.gnu.org/licenses/gpl.txt" />
        <dc:creator>
          <cc:Agent>
            <dc:title>Onboard Devel Team at https://launchpad.net/~onboard</dc:title>
          </cc:Agent>
        </dc:creator>
        <dc:rights>
          <cc:Agent>
            <dc:title>GPL-3+ license</dc:title>
          </cc:Agent>
        </dc:rights>
        <dc:publisher>
          <cc:Agent>
            <dc:title>Onboard Devel Team</dc:title>
          </cc:Agent>
        </dc:publisher>
        <dc:source>https://launchpad.net/onboard</dc:source>
        <dc:relation>This file is part of Onboard</dc:relation>
        <dc:contributor>
          <cc:Agent>
            <dc:title>Copyright © 2013, 2016, Francesco Fumanti &lt;francesco.fumanti@gmx.net&gt;
Copyright © 2011-2014, marmuta &lt;marmvta@gmail.com&gt;</dc:title>
          </cc:Agent>
        </dc:contributor>
      </cc:Work>
    </rdf:RDF>
  </metadata>
  <rect
     id="wordlist"
     height="15.028312"
     width="306.52832"
     y="-5.5141563"
     x="0.48584402"
     style="fill:#151530;stroke:#7f7f7f;stroke-width:0.97168803;stroke-miterlimit:4;stroke-dasharray:none" />
  <rect
     id="prediction"
     height="15"
     width="49"
     y="-5.5"
     x="71.5"
     style="color:#000000;display:inline;overflow:visible;visibility:visible;fill:#2b2b63;fill-opacity:1;fill-rule:nonzero;stroke:#7f7f7f;stroke-width:1;stroke-linecap:butt;stroke-linejoin:miter;stroke-miterlimit:4;stroke-dasharray:none;stroke-dashoffset:0;stroke-opacity:1;marker:none;enable-background:accumulate" />
  <rect
     id="correction"
     height="15"
     width="49"
     y="-5.5"
     x="1.5"
     style="color:#000000;display:inline;overflow:visible;visibility:visible;fill:#2b2b63;fill-opacity:1;fill-rule:nonzero;stroke:#7f7f7f;stroke-width:1;stroke-linecap:butt;stroke-linejoin:miter;stroke-miterlimit:4;stroke-dasharray:none;stroke-dashoffset:0;stroke-opacity:1;marker:none;enable-background:accumulate"
     inkscape:label="#correction" />
  <rect
     id="expand-corrections"
     height="14.685742"
     width="16.685743"
     y="-5.3428712"
     x="52.657127"
     style="fill:#2b2b63;stroke:#7f7f7f;stroke-width:1.3142575;stroke-miterlimit:4;stroke-dasharray:none" />
  <rect
     id="AB01"
     style="fill:#e5d8b2;stroke:#000000"
     height="18"
     width="18"
     y="77.5"
     x="41.5" />
  <rect
     id="AE02"
     style="fill:#e5d8b2;stroke:#000000"
     height="18"
     width="18"
     y="20.5"
     x="38" />
  <rect
     id="AE03"
     style="fill:#e5d8b2;stroke:#000000"
     height="18"
     width="18"
     y="20.5"
     x="57" />
  <rect
     id="AD09"
     style="fill:#e5d8b2;stroke:#000000"
     height="18"
     width="18"
     y="39.5"
     x="177.5" />
  <rect
     id="AE01"
     style="fill:#e5d8b2;stroke:#000000"
     height="18"
     width="18"
     y="20.5"
     x="19" />
  <rect
     id="AE06"
     style="fill:#e5d8b2;stroke:#000000"
     height="18"
     width="18"
     y="20.5"
     x="114" />
  <rect
     id="AE07"
     style="fill:#e5d8b2;stroke:#000000"
     height="18"
     width="18"
     y="20.5"
     x="133" />
  <rect
     id="AE04"
     style="fill:#e5d8b2;stroke:#000000"
     height="18"
     width="18"
     y="20.5"
     x="76" />
  <rect
     id="AE05"
     style="fill:#e5d8b2;stroke:#000000"
     height="18"
     width="18"
     y="20.5"
     x="95" />
  <rect
     id="AD03"
     style="fill:#e5d8b2;stroke:#000000"
     height="18"
     width="18"
     y="39.5"
     x="63.5" />
  <rect
     id="AD02"
     style="fill:#e5d8b2;stroke:#000000"
     height="18"
     width="18"
     y="39.5"
     x="44.5" />
  <rect
     id="AD01"
     style="fill:#e5d8b2;stroke:#000000"
     height="18"
     width="18"
     y="39.5"
     x="25.5" />
  <rect
     id="AE09"
     style="fill:#e5d8b2;stroke:#000000"
     height="18"
     width="18"
     y="20.5"
     x="171" />
  <rect
     id="AD07"
     style="fill:#e5d8b2;stroke:#000000"
     height="18"
     width="18"
     y="39.5"
     x="139.5" />
  <rect
     id="AD06"
     style="fill:#e5d8b2;stroke:#000000"
     height="18"
     width="18"
     y="39.5"
     x="120.5" />
  <rect
     id="AD05"
     style="fill:#e5d8b2;stroke:#000000"
     height="18"
     width="18"
     y="39.5"
     x="101.5" />
  <rect
     id="AD04"
     style="fill:#e5d8b2;stroke:#000000"
     height="18"
     width="18"
     y="39.5"
     x="82.5" />
  <rect
     id="AB10"
     style="fill:#e5d8b2;stroke:#000000"
     height="18"
     width="18"
     y="77.5"
     x="212.5" />
  <rect
     id="AC11"
     style="fill:#e5d8b2;stroke:#000000"
     height="18"
     width="18"
     y="58.5"
     x="221" />
  <rect
     id="AC10"
     style="fill:#e5d8b2;stroke:#000000"
     height="18"
     width="18"
     y="58.5"
     x="202" />
  <rect
     id="TLDE"
     style="fill:#e5d8b2;stroke:#000000;stroke-width:0.99999994"
     height="18"
     width="17.5"
     y="20.5"
     x="0.5" />
  <rect
     id="BKSL"
     style="fill:#e5d8b2;stroke:#000000;stroke-width:0.9877969;stroke-miterlimit:4;stroke-dasharray:none"
     height="17.724802"
     width="29.724802"
     y="39.637596"
     x="253.63762"
     transform="matrix(1.0093578,0,0,1.0153587,-2.5125786,-0.74489328)" />
  <rect
     id="AD10"
     style="fill:#e5d8b2;stroke:#000000"
     height="18"
     width="18"
     y="39.5"
     x="196.5" />
  <rect
     id="AD11"
     style="fill:#e5d8b2;stroke:#000000"
     height="18"
     width="18"
     y="39.5"
     x="215.5" />
  <rect
     id="AD12"
     style="fill:#e5d8b2;stroke:#000000"
     height="18"
     width="18"
     y="39.5"
     x="234.5" />
  <rect
     id="AB08"
     style="fill:#e5d8b2;stroke:#000000"
     height="18"
     width="18"
     y="77.5"
     x="174.5" />
  <rect
     id="AE11"
     style="fill:#e5d8b2;stroke:#000000"
     height="18"
     width="18"
     y="20.5"
     x="209" />
  <rect
     id="AE10"
     style="fill:#e5d8b2;stroke:#000000"
     height="18"
     width="18"
     y="20.5"
     x="190" />
  <rect
     id="AE12"
     style="fill:#e5d8b2;stroke:#000000"
     height="18"
     width="18"
     y="20.5"
     x="228" />
  <rect
     id="AC04"
     style="fill:#e5d8b2;stroke:#000000"
     height="18"
     width="18"
     y="58.5"
     x="88" />
  <rect
     id="AC05"
     style="fill:#e5d8b2;stroke:#000000"
     height="18"
     width="18"
     y="58.5"
     x="107" />
  <rect
     id="AC06"
     style="fill:#e5d8b2;stroke:#000000"
     height="18"
     width="18"
     y="58.5"
     x="125.99998" />
  <rect
     id="AC07"
     style="fill:#e5d8b2;stroke:#000000"
     height="18"
     width="18"
     y="58.5"
     x="145" />
  <rect
     id="AB09"
     style="fill:#e5d8b2;stroke:#000000"
     height="18"
     width="18"
     y="77.5"
     x="193.5" />
  <rect
     id="AC01"
     style="fill:#e5d8b2;stroke:#000000"
     height="18"
     width="18"
     y="58.5"
     x="31" />
  <rect
     id="AC02"
     style="fill:#e5d8b2;stroke:#000000"
     height="18"
     width="18"
     y="58.5"
     x="50" />
  <rect
     id="AC03"
     style="fill:#e5d8b2;stroke:#000000"
     height="18"
     width="18"
     y="58.5"
     x="69" />
  <rect
     id="AB05"
     style="fill:#e5d8b2;stroke:#000000"
     height="18"
     width="18"
     y="77.5"
     x="117.5" />
  <rect
     id="AB04"
     style="fill:#e5d8b2;stroke:#000000"
     height="18"
     width="18"
     y="77.5"
     x="98.5" />
  <rect
     id="AE08"
     style="fill:#e5d8b2;stroke:#000000"
     height="18"
     width="18"
     y="20.5"
     x="152" />
  <rect
     id="AB06"
     style="fill:#e5d8b2;stroke:#000000"
     height="18"
     width="18"
     y="77.5"
     x="136.5" />
  <rect
     id="AC08"
     style="fill:#e5d8b2;stroke:#000000"
     height="18"
     width="18"
     y="58.5"
     x="164" />
  <rect
     id="AC09"
     style="fill:#e5d8b2;stroke:#000000"
     height="18"
     width="18"
     y="58.5"
     x="183" />
  <rect
     id="AB03"
     style="fill:#e5d8b2;stroke:#000000"
     height="18"
     width="18"
     y="77.5"
     x="79.5" />
  <rect
     id="AB02"
     style="fill:#e5d8b2;stroke:#000000"
     height="18"
     width="18"
     y="77.5"
     x="60.5" />
  <rect
     id="AD08"
     style="fill:#e5d8b2;stroke:#000000"
     height="18"
     width="18"
     y="39.5"
     x="158.5" />
  <rect
     id="AB07"
     style="fill:#e5d8b2;stroke:#000000"
     height="18"
     width="18"
     y="77.5"
     x="155.5" />
  <rect
     id="LCTL"
     style="fill:#f2e5d8;stroke:#000000"
     height="18"
     width="27"
     y="96.5"
     x="0.5" />
  <rect
     id="LALT"
     style="fill:#f2e5d8;stroke:#000000"
     height="18"
     width="23"
     y="96.5"
     x="52.5" />
  <rect
     id="LWIN"
     style="fill:#f2e5d8;stroke:#000000"
     height="18"
     width="23"
     y="96.5"
     x="28.5" />
  <rect
     id="BKSP"
     style="fill:#d8cca5;stroke:#000000;stroke-width:0.98345655;stroke-miterlimit:4;stroke-dasharray:none"
     height="17.599667"
     width="36.099686"
     y="20.700167"
     x="247.20016"
     transform="matrix(1.0112412,0,0,1.0224331,-2.9817273,-0.66177619)" />
  <rect
     id="TAB"
     style="fill:#d8cca5;stroke:#000000;stroke-width:0.99445528;stroke-miterlimit:4;stroke-dasharray:none"
     height="18.102961"
     width="23.602962"
     y="39.448521"
     x="0.44851884"
     transform="matrix(1.0163668,0,0,0.994899,0.049506,0.2473963)" />
  <rect
     id="CAPS"
     style="fill:#f2e5d8;stroke:#000000;stroke-width:1.00012529;stroke-miterlimit:4;stroke-dasharray:none"
     height="18.002808"
     width="29.50281"
     y="58.498596"
     x="0.49859589"
     transform="matrix(0.99990378,0,0,0.99984566,0.00146664,0.01041813)" />
  <rect
     id="RTRN_"
     style="fill:#d8cca5;stroke:#000000"
     height="18"
     width="42"
     y="-57.318851"
     x="250.37061"
     inkscape:label="#RTRN" />
  <rect
     id="LFSH"
     style="fill:#f2e5d8;stroke:#000000;stroke-width:0.99170375;stroke-miterlimit:4;stroke-dasharray:none"
     height="17.792994"
     width="39.792992"
     y="77.6035"
     x="0.60350335"
     transform="matrix(1.0052791,0,0,1.0114616,-0.10821977,-0.99142539)" />
  <rect
     id="RTSH"
     style="fill:#f2e5d8;stroke:#000000;stroke-width:0.997774;stroke-miterlimit:4;stroke-dasharray:none"
     height="17.939823"
     width="52.439823"
     y="77.53009"
     x="231.53009"
     transform="matrix(1.0011678,0,0,1.0032952,-0.30099394,-0.28503498)" />
  <rect
     id="SPCE"
     style="fill:#e5d8b2;stroke:#000000;stroke-width:0.99943936;stroke-miterlimit:4;stroke-dasharray:none"
     height="17.982313"
     width="112.48232"
     y="96.508842"
     x="76.508842"
     transform="matrix(1.0001607,0,0,1.0009613,-0.02133841,-0.10142174)" />
  <rect
     id="RALT"
     style="fill:#f2e5d8;stroke:#000000;stroke-width:1.00252163;stroke-miterlimit:4;stroke-dasharray:none"
     height="18.090899"
     width="18.090899"
     y="96.454552"
     x="189.95454"
     transform="matrix(0.99510721,0,0,0.99986793,0.97367217,-0.03151713)" />
  <rect
     id="LEFT"
     style="fill:#d8cca5;stroke:#000000"
     height="18"
     width="18"
     y="96.5"
     x="228" />
  <rect
     id="RGHT"
     style="fill:#d8cca5;stroke:#000000"
     height="18"
     width="18"
     y="96.5"
     x="266" />
  <rect
     id="UP"
     style="fill:#d8cca5;stroke:#000000;stroke-width:1.02527142;stroke-miterlimit:4;stroke-dasharray:none"
     height="8.7952719"
     width="18.295273"
     y="96.352364"
     x="246.85237"
     transform="matrix(0.98340915,0,0,0.96735993,4.2472494,3.2884877)" />
  <rect
     id="DOWN"
     style="fill:#d8cca5;stroke:#000000;stroke-width:1.02527142;stroke-miterlimit:4;stroke-dasharray:none"
     height="8.7952719"
     width="18.295273"
     y="105.85236"
     x="246.85237"
     transform="matrix(0.98340915,0,0,0.96735993,4.2472501,3.5985681)" />
  <rect
     id="secondaryclick"
     style="fill:#d8cca5;stroke:#000000"
     height="18"
     width="18"
     y="96.5"
     x="209" />
  <rect
     id="inputline"
     style="fill:#151530;fill-opacity:0.59360729;stroke:#000000;stroke-width:1"
     height="18"
     width="246"
     y="-53.768021"
     x="-50.211643" />
  <rect
     style="fill:#2b2b63;stroke:#7f7f7f;stroke-width:0.99999994;stroke-miterlimit:4;stroke-dasharray:none"
     x="285.5"
     y="-5.5"
     width="17"
     height="15"
     id="hide.wordlist"
     inkscape:label="" />
  <rect
     inkscape:label=""
     id="language.wordlist"
     height="15"
     width="17"
     y="-5.5"
     x="265.5"
     style="fill:#2b2b63;stroke:#7f7f7f;stroke-width:0.99999994;stroke-miterlimit:4;stroke-dasharray:none" />
  <rect
     style="fill:#2b2b63;stroke:#7f7f7f;stroke-width:0.99999994;stroke-miterlimit:4;stroke-dasharray:none"
     x="225.5"
     y="-5.5"
     width="17"
     height="15"
     id="next-predictions.wordlist"
     inkscape:label="" />
  <rect
     style="fill:#2b2b63;stroke:#7f7f7f;stroke-width:0.99999994;stroke-miterlimit:4;stroke-dasharray:none"
     x="205.5"
     y="-5.5"
     width="17"
     height="15"
     id="previous-predictions.wordlist"
     inkscape:label="" />
  <rect
     inkscape:label=""
     id="pause-learning.wordlist"
     height="15"
     width="17"
     y="-5.5"
     x="245.5"
     style="fill:#2b2b63;stroke:#7f7f7f;stroke-width:0.99999994;stroke-miterlimit:4;stroke-dasharray:none" />
  <rect
     x="240.26125"
     y="58.761242"
     width="42.970531"
     height="17.477516"
     style="fill:#e5d8b2;stroke:#000000;stroke-width:0.97949791;stroke-miterlimit:4;stroke-dasharray:none"
     id="RTRN"
     transform="matrix(1.0125135,0,0,1.0294189,-3.2718907,-1.9857782)" />
  <rect
     x="0.50005269"
     y="10.500052"
     width="24.999893"
     height="8.9998951"
     style="fill:#e5d8b2;stroke:#000000;stroke-width:1.00010538;stroke-miterlimit:4;stroke-dasharray:none"
     id="ESC" />
  <rect
     id="F1"
     style="fill:#e5d8b2;stroke:#000000;stroke-width:0.99980283;stroke-miterlimit:4;stroke-dasharray:none"
     height="9.0001974"
     width="18.000196"
     y="10.499902"
     x="26.499903" />
  <rect
     x="45.499901"
     y="10.499902"
     width="18.000196"
     height="9.0001974"
     style="fill:#e5d8b2;stroke:#000000;stroke-width:0.99980283;stroke-miterlimit:4;stroke-dasharray:none"
     id="F2" />
  <rect
     x="64.499901"
     y="10.499902"
     width="18.000196"
     height="9.0001974"
     style="fill:#e5d8b2;stroke:#000000;stroke-width:0.99980283;stroke-miterlimit:4;stroke-dasharray:none"
     id="F3" />
  <rect
     id="F4"
     style="fill:#e5d8b2;stroke:#000000;stroke-width:0.99980283;stroke-miterlimit:4;stroke-dasharray:none"
     height="9.0001974"
     width="18.000196"
     y="10.499902"
     x="83.499901" />
  <rect
     id="F5"
     style="fill:#e5d8b2;stroke:#000000;stroke-width:0.99980283;stroke-miterlimit:4;stroke-dasharray:none"
     height="9.0001974"
     width="18.000196"
     y="10.499902"
     x="102.4999" />
  <rect
     x="121.4999"
     y="10.499902"
     width="18.000196"
     height="9.0001974"
     style="fill:#e5d8b2;stroke:#000000;stroke-width:0.99980283;stroke-miterlimit:4;stroke-dasharray:none"
     id="F6" />
  <rect
     x="140.49991"
     y="10.499902"
     width="18.000196"
     height="9.0001974"
     style="fill:#e5d8b2;stroke:#000000;stroke-width:0.99980283;stroke-miterlimit:4;stroke-dasharray:none"
     id="F7" />
  <rect
     id="F8"
     style="fill:#e5d8b2;stroke:#000000;stroke-width:0.99980283;stroke-miterlimit:4;stroke-dasharray:none"
     height="9.0001974"
     width="18.000196"
     y="10.499902"
     x="159.49991"
     inkscape:label="#F8" />
  <rect
     id="F9"
     style="fill:#e5d8b2;stroke:#000000;stroke-width:0.99980283;stroke-miterlimit:4;stroke-dasharray:none"
     height="9.0001974"
     width="18.000196"
     y="10.499902"
     x="178.49991" />
  <rect
     x="197.49991"
     y="10.499902"
     width="18.000196"
     height="9.0001974"
     style="fill:#e5d8b2;stroke:#000000;stroke-width:0.99980283;stroke-miterlimit:4;stroke-dasharray:none"
     id="F10" />
  <rect
     x="216.49991"
     y="10.499902"
     width="18.000196"
     height="9.0001974"
     style="fill:#e5d8b2;stroke:#000000;stroke-width:0.99980283;stroke-miterlimit:4;stroke-dasharray:none"
     id="F11" />
  <rect
     id="F12"
     style="fill:#e5d8b2;stroke:#000000;stroke-width:0.99980283;stroke-miterlimit:4;stroke-dasharray:none"
     height="9.0001974"
     width="18.000196"
     y="10.499902"
     x="235.49991" />
  <rect
     x="254.50005"
     y="10.500044"
     width="28.999912"
     height="8.9999123"
     style="fill:#e5d8b2;stroke:#000000;stroke-width:1.0000881;stroke-miterlimit:4;stroke-dasharray:none"
     id="DELE" />
</svg>
